…
``` r
library(xps)
library(dplyr)
#> 
#> Attaching package: 'dplyr'
#> The following objects are masked from 'package:stats':
#> 
#>     filter, lag
#> The following objects are masked from 'package:base':
#> 
#>     intersect, setdiff, setequal, union

census_dat
#> # A tibble: 20,000 x 10
#>    pol_num status    issue_date inc_guar qual    age product gender wd_age
#>      <int> <fct>     <date>     <lgl>    <lgl> <int> <fct>   <fct>   <int>
#>  1       1 Active    2014-12-17 TRUE     FALSE    56 b       F          77
#>  2       2 Surrender 2007-09-24 FALSE    FALSE    71 a       F          71
#>  3       3 Active    2012-10-06 FALSE    TRUE     62 b       F          63
#>  4       4 Surrender 2005-06-27 TRUE     TRUE     62 c       M          62
#>  5       5 Active    2019-11-22 FALSE    FALSE    62 c       F          67
#>  6       6 Active    2018-09-01 FALSE    TRUE     77 a       F          77
#>  7       7 Active    2011-07-23 TRUE     TRUE     63 a       M          65
#>  8       8 Surrender 2005-11-08 TRUE     TRUE     58 a       M          58
#>  9       9 Active    2010-09-19 FALSE    FALSE    53 c       M          64
#> 10      10 Active    2012-05-25 TRUE     FALSE    61 b       M          73
#> # ... with 19,990 more rows, and 1 more variable: term_date <date>
```
…
The `expose_` family of functions is used to perform this
transformation.

``` r
exposed_data <- expose(census_dat, end_date = "2019-12-31", 
                        target_status = "Surrender")

exposed_data
#> Exposure data
#> 
#>  Exposure type: policy_year 
#>  Target status: Surrender 
#>  Study range: 1900-01-01 to 2019-12-31 
#> 
#> # A tibble: 141,297 x 13
#>    pol_num status issue_date inc_guar qual    age product gender wd_age
#>  *   <int> <fct>  <date>     <lgl>    <lgl> <int> <fct>   <fct>   <int>
#>  1       1 Active 2014-12-17 TRUE     FALSE    56 b       F          77
#>  2       1 Active 2014-12-17 TRUE     FALSE    56 b       F          77
#>  3       1 Active 2014-12-17 TRUE     FALSE    56 b       F          77
#>  4       1 Active 2014-12-17 TRUE     FALSE    56 b       F          77
#>  5       1 Active 2014-12-17 TRUE     FALSE    56 b       F          77
#>  6       1 Active 2014-12-17 TRUE     FALSE    56 b       F          77
#>  7       2 Active 2007-09-24 FALSE    FALSE    71 a       F          71
#>  8       2 Active 2007-09-24 FALSE    FALSE    71 a       F          71
#>  9       2 Active 2007-09-24 FALSE    FALSE    71 a       F          71
#> 10       2 Active 2007-09-24 FALSE    FALSE    71 a       F          71
#> # ... with 141,287 more rows, and 4 more variables: term_date <date>,
#> #   pol_yr <int>, pol_date_yr <date>, exposure <dbl>
```
…
``` r
library(dplyr)

exp_res <- exposed_data |> 
  group_by(pol_yr, inc_guar) |> 
  exp_stats()

exp_res
#> Experience study results
#> 
#>  Groups: pol_yr, inc_guar 
#>  Target status: Surrender 
#>  Study range: 1900-01-01 to 2019-12-31 
#> 
#> # A tibble: 30 x 5
#>    pol_yr inc_guar claims exposure   q_obs
#>  *  <int> <lgl>     <int>    <dbl>   <dbl>
#>  1      1 FALSE        42    7719. 0.00544
#>  2      1 TRUE         38   11526. 0.00330
#>  3      2 FALSE        65    7117. 0.00913
#>  4      2 TRUE         61   10605. 0.00575
#>  5      3 FALSE        67    6476. 0.0103 
#>  6      3 TRUE         60    9626. 0.00623
#>  7      4 FALSE       103    5823. 0.0177 
#>  8      4 TRUE         58    8697. 0.00667
#>  9      5 FALSE        94    5147. 0.0183 
#> 10      5 TRUE         72    7779. 0.00926
#> # ... with 20 more rows
```
…
exp_res <- exposed_data |> 
  group_by(pol_yr, inc_guar) |> 
  exp_stats(expected = c("expected_1", "expected_2"))

exp_res
#> Experience study results
#> 
#>  Groups: pol_yr, inc_guar 
#>  Target status: Surrender 
#>  Study range: 1900-01-01 to 2019-12-31 
#>  Expected values: expected_1, expected_2 
#> 
#> # A tibble: 30 x 9
#>    pol_yr inc_guar claims exposure   q_obs expected_1 expected_2 ae_expected_1
#>  *  <int> <lgl>     <int>    <dbl>   <dbl>      <dbl>      <dbl>         <dbl>
#>  1      1 FALSE        42    7719. 0.00544    0.005        0.03          1.09 
#>  2      1 TRUE         38   11526. 0.00330    0.005        0.015         0.659
#>  3      2 FALSE        65    7117. 0.00913    0.00778      0.03          1.17 
#>  4      2 TRUE         61   10605. 0.00575    0.00778      0.015         0.740
#>  5      3 FALSE        67    6476. 0.0103     0.0106       0.03          0.980
#>  6      3 TRUE         60    9626. 0.00623    0.0106       0.015         0.591
#>  7      4 FALSE       103    5823. 0.0177     0.0133       0.03          1.33 
#>  8      4 TRUE         58    8697. 0.00667    0.0133       0.015         0.500
#>  9      5 FALSE        94    5147. 0.0183     0.0161       0.03          1.13 
#> 10      5 TRUE         72    7779. 0.00926    0.0161       0.015         0.574
#> # ... with 20 more rows, and 1 more variable: ae_expected_2 <dbl>
```
…
