Add transactions to an experience study — add_transactions • actxps
…
    expose(), as_exposed_df()

    Examples

expo <- expose_py(census_dat, "2019-12-31", target_status = "Surrender")
add_transactions(expo, withdrawals)
#> 
#> ── Exposure data ──
#> 
#> • Exposure type: policy_year
#> • Target status: Surrender
#> • Study range: 1900-01-01 to 2019-12-31
#> • Transaction types: Base and Rider
#> 
#> # A tibble: 141,252 × 19
#>    pol_num status issue_date inc_guar qual    age product gender wd_age premium
#>      <int> <fct>  <date>     <lgl>    <lgl> <int> <fct>   <fct>   <int>   <dbl>
#>  1       1 Active 2014-12-17 TRUE     FALSE    56 b       F          77     370
#>  2       1 Active 2014-12-17 TRUE     FALSE    56 b       F          77     370
#>  3       1 Active 2014-12-17 TRUE     FALSE    56 b       F          77     370
#>  4       1 Active 2014-12-17 TRUE     FALSE    56 b       F          77     370
#>  5       1 Active 2014-12-17 TRUE     FALSE    56 b       F          77     370
#>  6       1 Active 2014-12-17 TRUE     FALSE    56 b       F          77     370
#>  7       2 Active 2007-09-24 FALSE    FALSE    71 a       F          71     708
#>  8       2 Active 2007-09-24 FALSE    FALSE    71 a       F          71     708
#>  9       2 Active 2007-09-24 FALSE    FALSE    71 a       F          71     708
#> 10       2 Active 2007-09-24 FALSE    FALSE    71 a       F          71     708
#> # ℹ 141,242 more rows
#> # ℹ 9 more variables: term_date <date>, pol_yr <int>, pol_date_yr <date>,
#> #   pol_date_yr_end <date>, exposure <dbl>, trx_amt_Base <dbl>,
#> #   trx_amt_Rider <dbl>, trx_n_Base <dbl>, trx_n_Rider <dbl>
…
