Termination summary helper functions — as_exp_df • actxps
…
# convert pre-aggregated experience into an exp_df object
dat <- as_exp_df(agg_sim_dat, col_exposure = "exposure_n",
                 col_claims = "claims_n",
                 target_status = "Surrender",
                 start_date = 2005, end_date = 2019,
                 conf_int = TRUE)
dat
#> 
#> ── Experience study results ──
#> 
#> • Target status: Surrender
#> • Study range: 2005 to 2019
#> 
#> # A tibble: 180 × 17
#>    pol_yr inc_guar qual  product exposure claims      av exposure_amt claims_amt
#>     <int> <lgl>    <lgl> <fct>      <dbl>  <int>   <dbl>        <dbl>      <dbl>
#>  1      1 FALSE    FALSE a           880.      3 1204699     1168118.       1236
#>  2      1 FALSE    FALSE b           885.      9 1209902     1154044.       8472
#>  3      1 FALSE    FALSE c          1685.     12 2265030     2170944.       9245
#>  4      1 FALSE    TRUE  a          1073.     11 1433862     1375173.       8851
#>  5      1 FALSE    TRUE  b          1086.      8 1449080     1396136.       7095
#>  6      1 FALSE    TRUE  c          2111.     13 2907067     2794199.      12468
#>  7      1 TRUE     FALSE a          1299.      9 1796934     1744069.       5272
#>  8      1 TRUE     FALSE b          1230.      2 1732269     1662742.       1059
#>  9      1 TRUE     FALSE c          2702.     11 3700302     3590893.       9647
#> 10      1 TRUE     TRUE  a          1601.      5 2234728     2147418.       3354
#> # ℹ 170 more rows
#> # ℹ 8 more variables: av_sq <dbl>, n <int>, wd <dbl>, wd_n <dbl>,
#> #   wd_flag <int>, wd_sq <dbl>, av_w_wd <dbl>, n_claims <int>
…
                    col_n_claims = "claims_n",
                    col_weight_sq = "av_sq",
                    col_weight_n = "n",
                    target_status = "Surrender",
                    start_date = 2005, end_date = 2019,
                    conf_int = TRUE)
dat_wt
#> 
#> ── Experience study results ──
#> 
#> • Target status: Surrender
#> • Study range: 2005 to 2019
#> • Weighted by: av
#> 
#> # A tibble: 180 × 16
#>    pol_yr inc_guar qual  product exposure_n n_claims .weight exposure claims
#>     <int> <lgl>    <lgl> <fct>        <dbl>    <int>   <dbl>    <dbl>  <dbl>
#>  1      1 FALSE    FALSE a             880.        3 1204699 1168118.   1236
#>  2      1 FALSE    FALSE b             885.        9 1209902 1154044.   8472
#>  3      1 FALSE    FALSE c            1685.       12 2265030 2170944.   9245
#>  4      1 FALSE    TRUE  a            1073.       11 1433862 1375173.   8851
#>  5      1 FALSE    TRUE  b            1086.        8 1449080 1396136.   7095
#>  6      1 FALSE    TRUE  c            2111.       13 2907067 2794199.  12468
#>  7      1 TRUE     FALSE a            1299.        9 1796934 1744069.   5272
#>  8      1 TRUE     FALSE b            1230.        2 1732269 1662742.   1059
#>  9      1 TRUE     FALSE c            2702.       11 3700302 3590893.   9647
#> 10      1 TRUE     TRUE  a            1601.        5 2234728 2147418.   3354
#> # ℹ 170 more rows
#> # ℹ 7 more variables: .weight_sq <dbl>, .weight_n <int>, wd <dbl>, wd_n <dbl>,
#> #   wd_flag <int>, wd_sq <dbl>, av_w_wd <dbl>
…
