Transaction summary helper functions — as_trx_df • actxps
…
                 col_trx_flag = "wd_flag",
                 col_percent_of = "av",
                 col_percent_of_w_trx = "av_w_wd",
                 col_trx_amt_sq = "wd_sq",
                 start_date = 2005, end_date = 2019,
                 conf_int = TRUE)
dat
#> 
#> ── Transaction study results ──
#> 
#> • Study range: 2005 to 2019
#> • Transaction types: wd
#> • Transactions as % of: av
#> 
#> # A tibble: 180 × 17
#>    pol_yr inc_guar qual  product exposure_n claims_n      av exposure_amt
#>     <int> <lgl>    <lgl> <fct>        <dbl>    <int>   <dbl>        <dbl>
#>  1      1 FALSE    FALSE a             880.        3 1204699     1168118.
#>  2      1 FALSE    FALSE b             885.        9 1209902     1154044.
#>  3      1 FALSE    FALSE c            1685.       12 2265030     2170944.
#>  4      1 FALSE    TRUE  a            1073.       11 1433862     1375173.
#>  5      1 FALSE    TRUE  b            1086.        8 1449080     1396136.
#>  6      1 FALSE    TRUE  c            2111.       13 2907067     2794199.
#>  7      1 TRUE     FALSE a            1299.        9 1796934     1744069.
#>  8      1 TRUE     FALSE b            1230.        2 1732269     1662742.
#>  9      1 TRUE     FALSE c            2702.       11 3700302     3590893.
#> 10      1 TRUE     TRUE  a            1601.        5 2234728     2147418.
#> # ℹ 170 more rows
#> # ℹ 9 more variables: claims_amt <dbl>, av_sq <dbl>, exposure <int>,
#> #   trx_amt <dbl>, trx_n <dbl>, trx_flag <int>, trx_amt_sq <dbl>,
#> #   av_w_trx <dbl>, trx_type <chr>
…
