Summarize experience study records — exp_stats • actxps
…
exp_res <- census_dat |>
           expose("2019-12-31", target_status = "Surrender") |>
           dplyr::group_by(pol_yr, inc_guar) |>
           exp_stats()

exp_res
#> Experience study results
#> 
#>  Groups: pol_yr, inc_guar 
#>  Target status: Surrender 
#>  Study range: 1900-01-01 to 2019-12-31 
#> 
#> # A tibble: 30 × 6
#>    pol_yr inc_guar n_claims claims exposure   q_obs
#>  *  <int> <lgl>       <int>  <int>    <dbl>   <dbl>
#>  1      1 FALSE          42     42    7719. 0.00544
#>  2      1 TRUE           38     38   11526. 0.00330
#>  3      2 FALSE          65     65    7117. 0.00913
#>  4      2 TRUE           61     61   10605. 0.00575
#>  5      3 FALSE          67     67    6476. 0.0103 
#>  6      3 TRUE           60     60    9626. 0.00623
#>  7      4 FALSE         103    103    5823. 0.0177 
#>  8      4 TRUE           58     58    8697. 0.00667
#>  9      5 FALSE          94     94    5147. 0.0183 
#> 10      5 TRUE           72     72    7779. 0.00926
#> # … with 20 more rows
…
