Split calendar exposures by policy year — expose_split • actxps
…
    expose() for information on creating exposure records from census
data.

    Examples

toy_census |> expose_cy("2022-12-31") |> expose_split()
#> 
#> ── Exposure data ──
#> 
#> • Exposure type: split_year
#> • Target status:
#> • Study range: 1900-01-01 to 2022-12-31
#> 
#> # A tibble: 58 × 9
#>    pol_num status issue_date term_date cal_yr     cal_yr_end pol_yr
#>      <int> <fct>  <date>     <date>    <date>     <date>      <int>
#>  1       1 Active 2010-01-01 NA        2010-01-01 2010-12-31      1
#>  2       1 Active 2010-01-01 NA        2011-01-01 2011-12-31      2
#>  3       1 Active 2010-01-01 NA        2012-01-01 2012-12-31      3
#>  4       1 Active 2010-01-01 NA        2013-01-01 2013-12-31      4
#>  5       1 Active 2010-01-01 NA        2014-01-01 2014-12-31      5
#>  6       1 Active 2010-01-01 NA        2015-01-01 2015-12-31      6
#>  7       1 Active 2010-01-01 NA        2016-01-01 2016-12-31      7
#>  8       1 Active 2010-01-01 NA        2017-01-01 2017-12-31      8
#>  9       1 Active 2010-01-01 NA        2018-01-01 2018-12-31      9
#> 10       1 Active 2010-01-01 NA        2019-01-01 2019-12-31     10
#> # ℹ 48 more rows
#> # ℹ 2 more variables: exposure_cal <dbl>, exposure_pol <dbl>
…
