Create exposure records from census records — expose • actxps
…
    expose_split() for information on splitting calendar year
exposures by policy year.

    Examples

toy_census |> expose("2020-12-31")
#> 
#> ── Exposure data ──
#> 
#> • Exposure type: policy_year
#> • Target status:
#> • Study range: 1900-01-01 to 2020-12-31
#> 
#> # A tibble: 33 × 8
#>    pol_num status issue_date term_date pol_yr pol_date_yr pol_date_yr_end
#>      <int> <fct>  <date>     <date>     <int> <date>      <date>         
#>  1       1 Active 2010-01-01 NA             1 2010-01-01  2010-12-31     
#>  2       1 Active 2010-01-01 NA             2 2011-01-01  2011-12-31     
#>  3       1 Active 2010-01-01 NA             3 2012-01-01  2012-12-31     
#>  4       1 Active 2010-01-01 NA             4 2013-01-01  2013-12-31     
#>  5       1 Active 2010-01-01 NA             5 2014-01-01  2014-12-31     
#>  6       1 Active 2010-01-01 NA             6 2015-01-01  2015-12-31     
#>  7       1 Active 2010-01-01 NA             7 2016-01-01  2016-12-31     
#>  8       1 Active 2010-01-01 NA             8 2017-01-01  2017-12-31     
#>  9       1 Active 2010-01-01 NA             9 2018-01-01  2018-12-31     
#> 10       1 Active 2010-01-01 NA            10 2019-01-01  2019-12-31     
#> # ℹ 23 more rows
#> # ℹ 1 more variable: exposure <dbl>

census_dat |> expose_py("2019-12-31", target_status = "Surrender")
#> 
#> ── Exposure data ──
#> 
#> • Exposure type: policy_year
#> • Target status: Surrender
#> • Study range: 1900-01-01 to 2019-12-31
#> 
#> # A tibble: 141,252 × 15
#>    pol_num status issue_date inc_guar qual    age product gender wd_age premium
#>      <int> <fct>  <date>     <lgl>    <lgl> <int> <fct>   <fct>   <int>   <dbl>
#>  1       1 Active 2014-12-17 TRUE     FALSE    56 b       F          77     370
#>  2       1 Active 2014-12-17 TRUE     FALSE    56 b       F          77     370
#>  3       1 Active 2014-12-17 TRUE     FALSE    56 b       F          77     370
#>  4       1 Active 2014-12-17 TRUE     FALSE    56 b       F          77     370
#>  5       1 Active 2014-12-17 TRUE     FALSE    56 b       F          77     370
#>  6       1 Active 2014-12-17 TRUE     FALSE    56 b       F          77     370
#>  7       2 Active 2007-09-24 FALSE    FALSE    71 a       F          71     708
#>  8       2 Active 2007-09-24 FALSE    FALSE    71 a       F          71     708
#>  9       2 Active 2007-09-24 FALSE    FALSE    71 a       F          71     708
#> 10       2 Active 2007-09-24 FALSE    FALSE    71 a       F          71     708
#> # ℹ 141,242 more rows
#> # ℹ 5 more variables: term_date <date>, pol_yr <int>, pol_date_yr <date>,
#> #   pol_date_yr_end <date>, exposure <dbl>
…
