Create exposure records in a recipes step — step_expose • actxps
…
    See also

    expose()

    Examples

expo_rec <- recipes::recipe(status ~ ., toy_census) |>
  step_expose(end_date = "2022-12-31", target_status = "Surrender",
              options = list(expo_length = "month")) |>
  prep()

recipes::juice(expo_rec)
#> # A tibble: 416 × 6
#>    issue_date term_date status pol_mth pol_date_mth exposure
#>    <date>     <date>    <fct>    <int> <date>          <dbl>
#>  1 2010-01-01 NA        Active       1 2010-01-01          1
#>  2 2010-01-01 NA        Active       2 2010-02-01          1
#>  3 2010-01-01 NA        Active       3 2010-03-01          1
#>  4 2010-01-01 NA        Active       4 2010-04-01          1
#>  5 2010-01-01 NA        Active       5 2010-05-01          1
#>  6 2010-01-01 NA        Active       6 2010-06-01          1
#>  7 2010-01-01 NA        Active       7 2010-07-01          1
#>  8 2010-01-01 NA        Active       8 2010-08-01          1
#>  9 2010-01-01 NA        Active       9 2010-09-01          1
#> 10 2010-01-01 NA        Active      10 2010-10-01          1
#> # … with 406 more rows
…
