Exposure calculations • actxps
…
toy_census[2, ] |> 
  expose(end_date = "2022-12-31", 
         cal_expo = TRUE,
         expo_length = "quarter", 
         target_status = "Surrender")
#> Exposure data
#> 
#>  Exposure type: calendar_quarter 
#>  Target status: Surrender 
#>  Study range: 1900-01-01 to 2022-12-31
#> 
#> # A tibble: 38 × 7
#>    pol_num status issue_date term_date cal_qtr    cal_qtr_end exposure
#>      <int> <fct>  <date>     <date>    <date>     <date>         <dbl>
#>  1       2 Active 2011-05-27 NA        2011-04-01 2011-06-30     0.385
#>  2       2 Active 2011-05-27 NA        2011-07-01 2011-09-30     1    
#>  3       2 Active 2011-05-27 NA        2011-10-01 2011-12-31     1    
#>  4       2 Active 2011-05-27 NA        2012-01-01 2012-03-31     1    
#>  5       2 Active 2011-05-27 NA        2012-04-01 2012-06-30     1    
#>  6       2 Active 2011-05-27 NA        2012-07-01 2012-09-30     1    
#>  7       2 Active 2011-05-27 NA        2012-10-01 2012-12-31     1    
#>  8       2 Active 2011-05-27 NA        2013-01-01 2013-03-31     1    
#>  9       2 Active 2011-05-27 NA        2013-04-01 2013-06-30     1    
#> 10       2 Active 2011-05-27 NA        2013-07-01 2013-09-30     1    
#> # ℹ 28 more rows
…
tidy(expo_rec, number = 1)
#> # A tibble: 1 × 4
#>   exposure_type target_status start_date end_date  
#>   <chr>         <chr>         <date>     <chr>     
#> 1 policy_month  Surrender     1900-01-01 2022-12-31

bake(expo_rec, new_data = NULL)
#> # A tibble: 416 × 7
#>    issue_date term_date status pol_mth pol_date_mth pol_date_mth_end exposure
#>    <date>     <date>    <fct>    <int> <date>       <date>              <dbl>
#>  1 2010-01-01 NA        Active       1 2010-01-01   2010-01-31              1
#>  2 2010-01-01 NA        Active       2 2010-02-01   2010-02-28              1
#>  3 2010-01-01 NA        Active       3 2010-03-01   2010-03-31              1
#>  4 2010-01-01 NA        Active       4 2010-04-01   2010-04-30              1
#>  5 2010-01-01 NA        Active       5 2010-05-01   2010-05-31              1
#>  6 2010-01-01 NA        Active       6 2010-06-01   2010-06-30              1
#>  7 2010-01-01 NA        Active       7 2010-07-01   2010-07-31              1
#>  8 2010-01-01 NA        Active       8 2010-08-01   2010-08-31              1
#>  9 2010-01-01 NA        Active       9 2010-09-01   2010-09-30              1
#> 10 2010-01-01 NA        Active      10 2010-10-01   2010-10-31              1
#> # ℹ 406 more rows
…
toy_census2 <- toy_census |> 
  mutate(plan_type = c("X", "Y", "Z"), 
         policy_value = c(100, 125, 90))

expose(toy_census2, end_date = "2022-12-31", 
       target = "Surrender")
#> Exposure data
#> 
#>  Exposure type: policy_year 
#>  Target status: Surrender 
#>  Study range: 1900-01-01 to 2022-12-31
#> 
#> # A tibble: 36 × 10
#>    pol_num status issue_date term_date plan_type policy_value pol_yr
#>      <int> <fct>  <date>     <date>    <chr>            <dbl>  <int>
#>  1       1 Active 2010-01-01 NA        X                  100      1
#>  2       1 Active 2010-01-01 NA        X                  100      2
#>  3       1 Active 2010-01-01 NA        X                  100      3
#>  4       1 Active 2010-01-01 NA        X                  100      4
#>  5       1 Active 2010-01-01 NA        X                  100      5
#>  6       1 Active 2010-01-01 NA        X                  100      6
#>  7       1 Active 2010-01-01 NA        X                  100      7
#>  8       1 Active 2010-01-01 NA        X                  100      8
#>  9       1 Active 2010-01-01 NA        X                  100      9
#> 10       1 Active 2010-01-01 NA        X                  100     10
#> # ℹ 26 more rows
#> # ℹ 3 more variables: pol_date_yr <date>, pol_date_yr_end <date>,
#> #   exposure <dbl>
…
exposed_data2 <- expose(toy_census, 
                        end_date = "2023-12-31", 
                        start_date = "1890-01-01",
                        target_status = "Surrender")

vctrs::vec_rbind(exposed_data, exposed_data2)
#> Exposure data
#> 
#>  Exposure type: policy_year 
#>  Target status: Surrender 
#>  Study range: 1890-01-01 to 2023-12-31
#> 
#> # A tibble: 73 × 8
#>    pol_num status issue_date term_date pol_yr pol_date_yr pol_date_yr_end
#>      <int> <fct>  <date>     <date>     <int> <date>      <date>         
#>  1       1 Active 2010-01-01 NA             1 2010-01-01  2010-12-31     
#>  2       1 Active 2010-01-01 NA             2 2011-01-01  2011-12-31     
#>  3       1 Active 2010-01-01 NA             3 2012-01-01  2012-12-31     
#>  4       1 Active 2010-01-01 NA             4 2013-01-01  2013-12-31     
#>  5       1 Active 2010-01-01 NA             5 2014-01-01  2014-12-31     
#>  6       1 Active 2010-01-01 NA             6 2015-01-01  2015-12-31     
#>  7       1 Active 2010-01-01 NA             7 2016-01-01  2016-12-31     
#>  8       1 Active 2010-01-01 NA             8 2017-01-01  2017-12-31     
#>  9       1 Active 2010-01-01 NA             9 2018-01-01  2018-12-31     
#> 10       1 Active 2010-01-01 NA            10 2019-01-01  2019-12-31     
#> # ℹ 63 more rows
#> # ℹ 1 more variable: exposure <dbl>

If dplyr::bind_rows() were used instead, the attributes
of exposed_data only are shown, which is likely
incorrect.

dplyr::bind_rows(exposed_data, exposed_data2)
#> Exposure data
#> 
#>  Exposure type: policy_year 
#>  Target status:  
#>  Study range: 1900-01-01 to 2022-12-31
#> 
#> # A tibble: 73 × 8
#>    pol_num status issue_date term_date pol_yr pol_date_yr pol_date_yr_end
#>      <int> <fct>  <date>     <date>     <int> <date>      <date>         
#>  1       1 Active 2010-01-01 NA             1 2010-01-01  2010-12-31     
#>  2       1 Active 2010-01-01 NA             2 2011-01-01  2011-12-31     
#>  3       1 Active 2010-01-01 NA             3 2012-01-01  2012-12-31     
#>  4       1 Active 2010-01-01 NA             4 2013-01-01  2013-12-31     
#>  5       1 Active 2010-01-01 NA             5 2014-01-01  2014-12-31     
#>  6       1 Active 2010-01-01 NA             6 2015-01-01  2015-12-31     
#>  7       1 Active 2010-01-01 NA             7 2016-01-01  2016-12-31     
#>  8       1 Active 2010-01-01 NA             8 2017-01-01  2017-12-31     
#>  9       1 Active 2010-01-01 NA             9 2018-01-01  2018-12-31     
#> 10       1 Active 2010-01-01 NA            10 2019-01-01  2019-12-31     
#> # ℹ 63 more rows
#> # ℹ 1 more variable: exposure <dbl>
…
