Transaction studies • actxps
…
exposed_data <- expose_py(census_dat, "2019-12-31", target_status = "Surrender")
exposed_data
#> Exposure data
#> 
#>  Exposure type: policy_year 
#>  Target status: Surrender 
#>  Study range: 1900-01-01 to 2019-12-31
#> 
#> # A tibble: 141,252 × 15
#>    pol_num status issue_date inc_guar qual    age product gender wd_age premium
#>      <int> <fct>  <date>     <lgl>    <lgl> <int> <fct>   <fct>   <int>   <dbl>
#>  1       1 Active 2014-12-17 TRUE     FALSE    56 b       F          77     370
#>  2       1 Active 2014-12-17 TRUE     FALSE    56 b       F          77     370
#>  3       1 Active 2014-12-17 TRUE     FALSE    56 b       F          77     370
#>  4       1 Active 2014-12-17 TRUE     FALSE    56 b       F          77     370
#>  5       1 Active 2014-12-17 TRUE     FALSE    56 b       F          77     370
#>  6       1 Active 2014-12-17 TRUE     FALSE    56 b       F          77     370
#>  7       2 Active 2007-09-24 FALSE    FALSE    71 a       F          71     708
#>  8       2 Active 2007-09-24 FALSE    FALSE    71 a       F          71     708
#>  9       2 Active 2007-09-24 FALSE    FALSE    71 a       F          71     708
#> 10       2 Active 2007-09-24 FALSE    FALSE    71 a       F          71     708
#> # ℹ 141,242 more rows
#> # ℹ 5 more variables: term_date <date>, pol_yr <int>, pol_date_yr <date>,
#> #   pol_date_yr_end <date>, exposure <dbl>

The withdrawals data has 4 columns that are required for
attaching transactions:

pol_num: policy number

trx_date: transaction date

trx_type: transaction type

trx_amt: transaction amount

withdrawals
#> # A tibble: 160,130 × 4
#>    pol_num trx_date   trx_type trx_amt
#>      <int> <date>     <fct>      <dbl>
#>  1       2 2007-10-05 Base          25
#>  2       2 2009-07-30 Base          12
#>  3       2 2010-02-22 Base           7
#>  4       2 2010-12-30 Base          52
#>  5       2 2012-05-07 Base          41
#>  6       2 2013-03-15 Base           1
#>  7       2 2013-12-06 Base           2
#>  8       2 2015-05-18 Base           2
#>  9       2 2016-05-10 Base           8
#> 10       2 2017-01-08 Base           2
#> # ℹ 160,120 more rows
…
If we print exposed_trx, we can see that it is still an
exposed_df object, but now it has an additional attribute
for transaction types that have been attached.

exposed_trx
#> Exposure data
#> 
#>  Exposure type: policy_year 
#>  Target status: Surrender 
#>  Study range: 1900-01-01 to 2019-12-31
#>  Transaction types: Base, Rider 
#> 
#> 
#> # A tibble: 141,252 × 19
#>    pol_num status issue_date inc_guar qual    age product gender wd_age premium
#>      <int> <fct>  <date>     <lgl>    <lgl> <int> <fct>   <fct>   <int>   <dbl>
#>  1       1 Active 2014-12-17 TRUE     FALSE    56 b       F          77     370
#>  2       1 Active 2014-12-17 TRUE     FALSE    56 b       F          77     370
#>  3       1 Active 2014-12-17 TRUE     FALSE    56 b       F          77     370
#>  4       1 Active 2014-12-17 TRUE     FALSE    56 b       F          77     370
#>  5       1 Active 2014-12-17 TRUE     FALSE    56 b       F          77     370
#>  6       1 Active 2014-12-17 TRUE     FALSE    56 b       F          77     370
#>  7       2 Active 2007-09-24 FALSE    FALSE    71 a       F          71     708
#>  8       2 Active 2007-09-24 FALSE    FALSE    71 a       F          71     708
#>  9       2 Active 2007-09-24 FALSE    FALSE    71 a       F          71     708
#> 10       2 Active 2007-09-24 FALSE    FALSE    71 a       F          71     708
#> # ℹ 141,242 more rows
#> # ℹ 9 more variables: term_date <date>, pol_yr <int>, pol_date_yr <date>,
#> #   pol_date_yr_end <date>, exposure <dbl>, trx_amt_Base <dbl>,
#> #   trx_amt_Rider <dbl>, trx_n_Base <dbl>, trx_n_Rider <dbl>
…
Multiple grouping variables are allowed. Below, policy year
(pol_yr) is added as a second grouping variable.

exposed_trx |> 
  group_by(pol_yr, inc_guar) |> 
  trx_stats()
#> Transaction study results
#> 
#>  Groups: pol_yr, inc_guar 
#>  Study range: 1900-01-01 to 2019-12-31 
#>  Transaction types: Base, Rider 
#> 
#> # A tibble: 60 × 11
#>    pol_yr inc_guar trx_type trx_n trx_flag trx_amt exposure avg_trx avg_all
#>     <int> <lgl>    <chr>    <dbl>    <int>   <dbl>    <dbl>   <dbl>   <dbl>
#>  1      1 FALSE    Base      6077     2881   98287     7435    34.1   13.2 
#>  2      1 FALSE    Rider        0        0       0     7435   NaN      0   
#>  3      1 TRUE     Base      1370      633   21590    11106    34.1    1.94
#>  4      1 TRUE     Rider     8077     3778  265312    11106    70.2   23.9 
#>  5      2 FALSE    Base      6091     2863   98413     6813    34.4   14.4 
#>  6      2 FALSE    Rider        0        0       0     6813   NaN      0   
#>  7      2 TRUE     Base      1183      559   18554    10158    33.2    1.83
#>  8      2 TRUE     Rider     8232     3834  288114    10158    75.1   28.4 
#>  9      3 FALSE    Base      6016     2813   97285     6176    34.6   15.8 
#> 10      3 FALSE    Rider        0        0       0     6176   NaN      0   
#> # ℹ 50 more rows
#> # ℹ 2 more variables: trx_freq <dbl>, trx_util <dbl>
…
If additional variable names are passed to the summary()
function, then the output will group the data by those variables. In our
example, if pol_yr is passed to summary(), the
output will contain one row per policy year for each transaction
type.

summary(trx_res, pol_yr)
#> Transaction study results
#> 
#>  Groups: pol_yr 
#>  Study range: 1900-01-01 to 2019-12-31 
#>  Transaction types: Base, Rider 
#>  Transactions as % of: av_anniv 
#> 
#> # A tibble: 30 × 14
#>    pol_yr trx_type trx_n trx_flag trx_amt exposure avg_trx avg_all trx_freq
#>     <int> <chr>    <dbl>    <int>   <dbl>    <dbl>   <dbl>   <dbl>    <dbl>
#>  1      1 Base      7447     3514  119877    18541    34.1    6.47     2.12
#>  2      1 Rider     8077     3778  265312    18541    70.2   14.3      2.14
#>  3      2 Base      7274     3422  116967    16971    34.2    6.89     2.13
#>  4      2 Rider     8232     3834  288114    16971    75.1   17.0      2.15
#>  5      3 Base      7061     3309  116357    15397    35.2    7.56     2.13
#>  6      3 Rider     8204     3817  294795    15397    77.2   19.1      2.15
#>  7      4 Base      6596     3080  114987    13790    37.3    8.34     2.14
#>  8      4 Rider     7960     3715  283763    13790    76.4   20.6      2.14
#>  9      5 Base      6093     2847  109918    12234    38.6    8.98     2.14
#> 10      5 Rider     7536     3521  264939    12234    75.2   21.7      2.14
#> # ℹ 20 more rows
#> # ℹ 5 more variables: trx_util <dbl>, av_anniv_w_trx <dbl>, av_anniv <dbl>,
#> #   pct_of_av_anniv_w_trx <dbl>, pct_of_av_anniv_all <dbl>
…
